# This file uses centimeters as units for non-parametric coordinates.

mtllib Hill_Rock.mtl
g default
v -0.313675 0.115274 0.194167
v 0.318069 0.115274 0.194167
v -0.172521 0.766042 0.131397
v 0.176915 0.766042 0.131397
v -0.172521 0.766042 -0.066675
v 0.271163 0.678221 -0.091400
v -0.168800 0.213279 -0.129445
v 0.475795 0.115274 -0.129445
v 0.090876 0.018182 0.340356
v 0.090876 0.046348 -0.188724
v 0.013764 0.811383 -0.102958
v 0.013764 0.811383 0.167680
v -0.259629 0.553163 0.272287
v -0.047295 0.456793 0.383008
v 0.230966 0.419579 0.272287
v 0.332270 0.419579 -0.197800
v 0.013764 0.419579 -0.285858
v -0.132351 0.553163 -0.207565
v -0.172521 0.836608 0.012554
v 0.013764 0.899125 0.005297
v 0.200048 0.836608 0.012554
v 0.318523 0.419579 0.035977
v 0.412656 -0.000000 0.000000
v 0.090876 -0.096983 -0.011856
v -0.421632 0.000000 0.000000
v -0.318748 0.553163 -0.015624
v -0.379951 0.297857 0.241039
v -0.038734 0.245522 0.372216
v 0.325955 0.302998 0.241039
v 0.420068 0.251747 0.021586
v 0.430899 0.297857 -0.170458
v 0.013764 0.268230 -0.247004
v -0.185038 0.297857 -0.176317
v -0.462204 0.251747 -0.009374
vt 0.475678 0.653354
vt 0.751585 0.482347
vt 0.716417 0.909449
vt 0.879983 0.811382
vt 0.078175 0.270833
vt 0.240605 0.098077
vt 0.330046 0.439310
vt 0.517326 0.174520
vt 0.640299 0.538843
vt 0.460940 0.343855
vt 0.115561 0.176118
vt 0.810786 0.870060
vt 0.627638 0.818915
vt 0.694195 0.723141
vt 0.804378 0.636717
vt 0.367277 0.150363
vt 0.286673 0.287831
vt 0.194614 0.314228
vt 0.025788 0.249493
vt 0.856323 0.943169
vt 0.938578 0.853946
vt 0.922401 0.594092
vt 0.599531 0.203809
vt 0.556342 0.395970
vt 0.359396 0.621533
vt 0.110517 0.417981
vt 0.513256 0.745745
vt 0.645945 0.646661
vt 0.807958 0.562987
vt 0.501636 0.071552
vt 0.438207 0.146383
vt 0.346918 0.326263
vt 0.284982 0.413610
vt 0.394561 0.781340
vt 0.230400 0.568284
vt 0.542707 0.934375
vt 0.879159 0.472867
vt 0.764962 0.367507
vt 0.739719 0.975969
vt 0.386437 0.028624
vt 0.142708 0.059510
vt 0.059120 0.139210
vn 0.132655 0.497135 0.857473
vn -0.011515 0.255725 0.966681
vn 0.363364 0.210442 0.907569
vn 0.356495 0.420396 0.834373
vn 0.106690 0.724953 -0.680486
vn 0.051679 0.993182 -0.104491
vn 0.379126 0.883144 -0.276259
vn 0.323719 0.669745 -0.668317
vn 0.246108 0.171046 -0.954030
vn 0.028586 0.185665 -0.982197
vn 0.077349 0.439772 -0.894772
vn 0.247126 0.413072 -0.876527
vn 0.356809 -0.918067 -0.172746
vn -0.035965 -0.993611 -0.106974
vn -0.069004 -0.640711 -0.764675
vn 0.239825 -0.765609 -0.596931
vn 0.924333 0.266070 0.273523
vn 0.897480 0.376309 0.230046
vn 0.910794 0.394440 0.121950
vn 0.962164 0.239850 0.129277
vn -0.651570 0.221863 -0.725419
vn -0.880880 0.372644 -0.291867
vn -0.886448 0.455286 -0.083212
vn -0.724311 0.355923 -0.590501
vn -0.253112 -0.520832 -0.815272
vn -0.315772 -0.948189 -0.035022
vn -0.179811 0.455050 -0.872122
vn -0.250946 0.330596 -0.909798
vn -0.334715 0.942318 0.001868
vn -0.284343 0.732516 -0.618522
vn -0.320297 0.311972 0.894474
vn -0.222832 0.559367 0.798408
vn -0.399127 -0.174401 0.900156
vn -0.101226 -0.155392 0.982653
vn 0.405615 -0.031591 0.913498
vn 0.925157 0.216238 0.311969
vn 0.896122 0.409038 0.172200
vn 0.194598 -0.174314 -0.965270
vn -0.057061 -0.219374 -0.973971
vn -0.425854 -0.245023 -0.870983
vn -0.557135 0.045213 -0.829190
vn -0.954788 0.064384 -0.290231
vn -0.278958 0.836826 0.471067
vn -0.000666 0.866125 0.499827
vn 0.294269 0.822285 0.487087
vn 0.878569 0.359129 0.314868
vn 0.900765 0.275755 0.335530
vn 0.888491 0.291262 0.354613
vn -0.017469 -0.899024 0.437551
vn 0.391795 -0.821495 0.414297
vn -0.246263 -0.874648 0.417547
vn -0.929435 0.226402 0.291363
vn -0.881693 0.427078 0.200552
vn -0.867067 0.454144 0.204810
vn -0.387302 -0.348975 0.853354
vn 0.142100 -0.173310 0.974562
vn 0.433262 -0.043694 0.900208
vn 0.889299 -0.100456 0.446157
vn 0.926340 -0.020133 0.376149
vn 0.958711 0.094731 0.268139
vn 0.093195 -0.223540 -0.970229
vn 0.185795 -0.181043 -0.965766
vn -0.405822 -0.404778 -0.819428
vn -0.393927 -0.215952 -0.893413
vn -0.911660 -0.332816 -0.241059
vn -0.854252 -0.249524 0.456061
s 1
g HillRock
usemtl initialShadingGroup
f 12/12/1 14/14/2 15/15/3 4/4/4
s 2
f 11/11/5 20/42/6 21/41/7 6/6/8
s 3
f 16/16/9 17/17/10 11/11/11 6/6/12
s 4
f 23/23/13 24/24/14 10/10/15 8/8/16
s 5
f 21/41/17 22/40/18 16/16/19 6/6/20
s 6
f 18/18/21 26/26/22 19/19/23 5/5/24
s 4
f 7/7/25 10/10/15 24/24/14 25/25/26
s 3
f 5/5/27 11/11/11 17/17/10 18/18/28
s 2
f 19/19/29 20/42/6 11/11/5 5/5/30
s 1
f 13/13/31 14/14/2 12/12/1 3/3/32
f 27/27/33 28/28/34 14/14/2 13/13/31
f 15/15/3 14/14/2 28/28/34 29/29/35
s 5
f 22/40/18 30/30/36 31/31/37 16/16/19
s 3
f 31/31/38 32/32/39 17/17/10 16/16/9
f 18/18/28 17/17/10 32/32/39 33/33/40
s 6
f 33/33/41 34/35/42 26/26/22 18/18/21
s 2
f 3/3/43 12/12/44 20/20/6 19/39/29
f 21/21/7 20/20/6 12/12/44 4/4/45
s 5
f 15/15/46 22/22/18 21/21/17 4/4/47
f 29/29/48 30/37/36 22/22/18 15/15/46
s 4
f 9/9/49 24/24/14 23/38/13 2/2/50
f 25/25/26 24/24/14 9/9/49 1/1/51
s 6
f 26/36/22 34/34/42 27/27/52 13/13/53
f 19/39/23 26/36/22 13/13/53 3/3/54
s 1
f 1/1/55 9/9/56 28/28/34 27/27/33
f 29/29/35 28/28/34 9/9/56 2/2/57
s 5
f 2/2/58 23/38/59 30/37/36 29/29/48
f 31/31/37 30/30/36 23/23/59 8/8/60
s 3
f 10/10/61 32/32/39 31/31/38 8/8/62
f 33/33/40 32/32/39 10/10/61 7/7/63
s 6
f 7/7/64 25/25/65 34/35/42 33/33/41
f 27/27/52 34/34/42 25/25/65 1/1/66
